████████╗███████╗░██████╗████████╗██╗░░██╗██╗██╗░░░░░██╗░░░░░███████╗██████╗
╚══██╔══╝██╔════╝██╔════╝╚══██╔══╝██║░██╔╝██║██║░░░░░██║░░░░░██╔════╝██╔══██╗
░░░██║░░░█████╗░░╚█████╗░░░░██║░░░█████═╝░██║██║░░░░░██║░░░░░█████╗░░██████╔╝
░░░██║░░░██╔══╝░░░╚═══██╗░░░██║░░░██╔═██╗░██║██║░░░░░██║░░░░░██╔══╝░░██╔══██╗
░░░██║░░░███████╗██████╔╝░░░██║░░░██║░╚██╗██║███████╗███████╗███████╗██║░░██║
░░░╚═╝░░░╚══════╝╚═════╝░░░░╚═╝░░░╚═╝░░╚═╝╚═╝╚══════╝╚══════╝╚══════╝╚═╝░░╚═╝
                                               by Airat Badrutdinov 4302-2020










ВАЖНО!!!

ДАННЫЕ РЕШЕНИЯ МОГУТ НЕ ЯВЛЯТЬСЯ ПРАВИЛЬНЫМИ, ТАК КАК КАЖДОЕ ИЗ НИХ ЧАСТИЧНО
ОБРАБАТЫВАЛОСЬ ВРУЧНУЮ.
ЕСЛИ ВАМ ПОМОГОЛО, ТО ОТБЛАГОДАРИТЬ АВТОРА МОЖНО ШОКОЛАДКОЙ))












==============================
==          PART 1          ==
==============================

Command: CLR R3
Машинный код
адрес	инстукция
020000	005003
020002

  Регистры
     до		после
  R0 000001	000001
  R1 000002	000002
  R2 000003	000003
> R3 000004	000000
  R4 000054	000054
  R5 000006	000006
  R6 000007	000007

  Память
  ячейка	до	после
  020004	005205	005205
  020006	005314	005314
  020010	033333	033333
  020012	005445	005445
  020014	045363	045363
  029916	144444	144444

==============================

Command: INC R4
Машинный код
адрес	инстукция
010002	005204
010004

  Регистры
     до		после
  R0 000010	000010
  R1 000020	000020
  R2 000030	000030
  R3 000040	000040
> R4 000050	000051
  R5 000060	000060
  R6 000070	000070

  Память
  ячейка	до	после
  017776	145555	145555
  020000	061111	061111
  027776	045454	045454
  030000	032323	032323
  037777	012434	012434
  040000	025111	025111

==============================

Command: DEC R1
Машинный код
адрес	инстукция
030006	005301
030010

  Регистры
     до		после
  R0 000000	000000
> R1 011000	010777
  R2 050555	050555
  R3 046666	046666
  R4 000463	000463
  R5 000004	000004
  R6 000006	000006

  Память
  ячейка	до	после
  030000	020200	020200
  030002	020220	020220
  030004	010000	010000
  030006	017777	017777
  030010	003476	003476
  030012	000454	000454

==============================

Command: MOV R1,R3
Машинный код
адрес	инстукция
040004	010103
040006

  Регистры
     до		после
  R0 000024	000024
  R1 000077	000077
  R2 000103	000103
> R3 004683	000077
  R4 000075	000075
  R5 004354	004354
  R6 000037	000037

  Память
  ячейка	до	после
  010000	000012	000012
  010010	000033	000033
  010020	022777	022777
  010030	145555	145555
  010040	005434	005434
  010060	046344	046344

==============================

Command: ADD R2,R4
Машинный код
адрес	инстукция
010000	060204
010002

  Регистры
     до		после
  R0 000000	000000
  R1 177777	177777
  R2 000010	000010
  R3 000047	000047
> R4 030074	030104
  R5 000456	000456
  R6 000007	000007

  Память
  ячейка	до	после
  010002	011102	011102
  001004	040000	040000
  020000	050000	050000
  020002	060000	060000
  030000	070000	070000
  030004	077777	077777

==============================

Command: CLR R0
Машинный код
адрес	инстукция
033000	005000
033002

  Регистры
     до		после
> R0 001777	000000
  R1 002776	002776
  R2 025555	025555
  R3 007665	007665
  R4 000964	000964
  R5 000000	000000
  R6 000005	000005

  Память
  ячейка	до	после
  030000	000000	000000
  030020	000032	000032
  030040	000042	000042
  030060	000045	000045
  030062	000036	000036
  030064	000345	000345

==============================

Command: MOV R5,R0
Машинный код
адрес	инстукция
050006	010500
050010

  Регистры
     до		после
> R0 000002	000042
  R1 000002	000002
  R2 000012	000012
  R3 000323	000323
  R4 000034	000034
  R5 000042	000042
  R6 000777	000777

  Память
  ячейка	до	после
  010000	000000	000000
  010002	000001	000001
  010004	000002	000002
  010006	000004	000004
  010010	000010	000010
  010012	000020	000020

==============================

is_integer
Command: MOV R1,R6
Машинный код
адрес	инстукция
011000	010106
011002

  Регистры
     до		после
  R0 020000	020000
  R1 011721	011721
  R2 022000	022000
  R3 047112	047112
  R4 023107	023107
  R5 002000	002000
> R6 012402	011721

  Память
  ячейка	до	после
  020000	000001	000001
  020200	000002	000002
  020400	000003	000003
  020600	000004	000004
  021000	000005	000005
  022000	000006	000006

==============================
==          PART 2          ==
==============================


Command: CLR (R3)+
Машинный код
адрес	инстукция
010000	005023
010002

  Регистры
     до		после
  R0 002000	002000
  R1 002002	002002
  R2 002004	002004
> R3 020006	020010
  R4 002010	002010
  R5 002012	002012
  R6 002014	002014

  Память
  ячейка	до	после
  020000	000001	000001
  020002	000002	000002
  020004	000003	000003
> 020006	000004	000000
  020010	000005	000005
  020012	000006	000006

==============================

Command: CLRB (R2)+
Машинный код
адрес	инстукция
001002	105022
001004

  Регистры
     до		после
  R0 010000	010000
  R1 020000	020000
> R2 030000	030001
  R3 040000	040000
  R4 050000	050000
  R5 060000	060000
  R6 100000	100000

  Память
  ячейка	до	после
> 030000	177333	177000
  030002	001123	001123
  030004	036366	036366
  030006	000775	000775
  030010	000006	000006
  030012	000000	000000

==============================

Command: INC (R1)+
Машинный код
адрес	инстукция
010000	005221
010002

  Регистры
     до		после
  R0 030010	030010
> R1 030012	030014
  R2 030014	030014
  R3 030016	030016
  R4 030020	030020
  R5 030022	030022
  R6 020024	020024

  Память
  ячейка	до	после
  030010	000007	000007
> 030012	000077	000100
  030014	000777	000777
  030016	007777	007777
  030020	077777	077777
  030022	000000	000000

==============================

Command: INCB (R5)+
Машинный код
адрес	инстукция
010000	105225
010002

  Регистры
     до		после
  R0 002000	002000
  R1 002002	002002
  R2 002004	002004
  R3 002006	002006
  R4 002010	002010
> R5 020012	020013
  R6 002014	002014

  Память
  ячейка	до	после
  020004	011222	011222
  020006	042222	042222
  020010	133333	133333
> 020012	034444	034445
  020014	000111	000111
  020016	011777	011777

==============================

Command: ADD (R0)+,(R6)+
Машинный код
адрес	инстукция
010010	062026
010012

  Регистры
     до		после
> R0 002000	002002
  R1 002002	002002
  R2 002004	002004
  R3 003000	003000
  R4 003002	003002
  R5 003004	003004
> R6 003006	003010

  Память
  ячейка	до	после
  001776	000001	000001
  002000	000021	000021
  002002	000037	000037
  003004	000047	000047
> 003006	000017	000040
  003010	000054	000054

==============================

Command: MOV (R3)+,(R2)+
Машинный код
адрес	инстукция
020000	012322
020002

  Регистры
     до		после
  R0 004000	004000
  R1 004100	004100
> R2 004200	004202
> R3 004300	004302
  R4 004400	004400
  R5 004600	004600
  R6 004700	004700

  Память
  ячейка	до	после
> 004200	036333	047777
  004202	122222	122222
  004204	000000	000000
  004300	047777	047777
  004302	000015	000015
  004304	000002	000002

==============================

Command: DEC (R4)+
Машинный код
адрес	инстукция
020002	005324
020004

  Регистры
     до		после
  R0 070000	070000
  R1 040000	040000
  R2 034000	034000
  R3 017200	017200
> R4 003400	003402
  R5 023400	023400
  R6 005630	005630

  Память
  ячейка	до	после
> 003400	055500	055477
  003402	050000	050000
  003404	030000	030000
  050000	012000	012000
  050400	040002	040002
  017776	071230	071230

==============================

Command: DECB (R2)+
Машинный код
адрес	инстукция
010000	105322
010002

  Регистры
     до		после
  R0 030111	030111
  R1 050200	050200
> R2 020002	020003
  R3 040200	040200
  R4 030200	030200
  R5 071170	071170
  R6 016666	016666

  Память
  ячейка	до	после
  020000	050000	050000
> 020002	030010	030007
  020004	017777	017777
  030000	013333	013333
  030006	020001	020001
  030010	101111	101111

==============================
==          PART 3          ==
==============================

Command: CLR -(R1)
Машинный код
адрес	инстукция
100000	005041
100002

  Регистры
     до		после
  R0 002776	002776
> R1 003000	002776
  R2 004000	004000
  R3 005000	005000
  R4 006000	006000
  R5 000001	000001
  R6 177777	177777

  Память
  ячейка	до	после
  002774	046666	046666
> 002776	045356	000000
  003000	000066	000066
  003002	003445	003445
  003004	000007	000007
  003006	000003	000003

==============================

Command: CLRB -(R3)
Машинный код
адрес	инстукция
032000	105043
032002

  Регистры
     до		после
  R0 017770	017770
  R1 017772	017772
  R2 017774	017774
> R3 017776	017775
  R4 020000	020000
  R5 020000	020000
  R6 020002	020002

  Память
  ячейка	до	после
  017772	013444	013444
> 017774	033377	000377
  017776	000045	000045
  020000	000073	000073
  020002	154656	154656
  020004	040564	040564

==============================

Command: INC -(R2)
Машинный код
адрес	инстукция
010000	005242
010002

  Регистры
     до		после
  R0 001770	001770
  R1 001772	001772
> R2 001774	001772
  R3 001776	001776
  R4 002000	002000
  R5 002002	002002
  R6 002004	002004

  Память
  ячейка	до	после
> 001772	077777	100000
  001774	002001	002001
  001776	000111	000111
  002000	004664	004664
  002002	000054	000054
  002004	000624	000624

==============================

Command: INCB -(R4)
Машинный код
адрес	инстукция
010010	105244
010012

  Регистры
     до		после
  R0 000000	000000
  R1 000132	000132
  R2 010000	010000
  R3 030222	030222
> R4 002202	002201
  R5 002000	002000
  R6 040000	040000

  Память
  ячейка	до	после
> 002200	002377	002777
  002202	030000	030000
  002204	050000	050000
  030000	012777	012777
  040000	073333	073333
  050000	015325	015325

==============================

Command: DEC -(R5)
Машинный код
адрес	инстукция
010200	005345
010202

  Регистры
     до		после
  R0 000177	000177
  R1 000001	000001
  R2 014000	014000
  R3 003014	003014
  R4 003016	003016
> R5 003020	003016
  R6 017700	017700

  Память
  ячейка	до	после
  003014	002136	002136
> 003016	003100	003077
  003020	030002	030002
  007776	002222	002222
  010000	017007	017007
  030002	033333	033333

==============================

Command: DECB -(R6)
Машинный код
адрес	инстукция
001100	105346
001102

  Регистры
     до		после
  R0 012000	012000
  R1 014000	014000
  R2 054000	054000
  R3 017700	017700
  R4 024000	024000
  R5 003100	003100
> R6 003200	003177

  Память
  ячейка	до	после
  003100	040000	040000
> 003176	001234	000634
  000320	017777	017777
  003202	020400	020400
  040000	044444	044444
  040002	033333	033333

==============================

Command: MOV -(R3),-(R0)
Машинный код
адрес	инстукция
010000	014340
010002

  Регистры
     до		после
> R0 002000	001776
  R1 001100	001100
  R2 007702	007702
> R3 003002	003000
  R4 012340	012340
  R5 034040	034040
  R6 000000	000000

  Память
  ячейка	до	после
  001774	030002	030002
> 001776	002111	007320
  002000	040000	040000
  003000	007320	007320
  003002	017200	017200
  003004	024444	024444

==============================

Command: ADD -(R1),-(R3)
Машинный код
адрес	инстукция
010002	064143
010004

  Регистры
     до		после
  R0 000001	000001
> R1 002000	001776
  R2 000007	000007
> R3 002100	002076
  R4 040000	040000
  R5 051200	051200
  R6 040771	040771

  Память
  ячейка	до	после
  001776	101101	101101
  002000	000012	000012
  002010	000003	000003
> 002076	000011	101112
  002100	000006	000006
  002102	000002	000002

==============================
==          PART 4          ==
==============================

Command: CLR 20(R3)
Машинный код
адрес	инстукция
001010	005063 000020
001014

  Регистры
     до		после
  R0 002000	002000
  R1 000220	000220
  R2 000222	000222
  R3 003300	003300
  R4 003310	003310
  R5 003320	003320
  R6 040000	040000

  Память
  ячейка	до	после
  003310	000001	000001
> 003320	000002	000000
  003330	000003	000003
  003340	000004	000004
  003350	000005	000005
  003360	000006	000006

==============================

Command: CLRB 10(R4)
Машинный код
адрес	инстукция
020000	105064 000010
020004

  Регистры
     до		после
  R0 000012	000012
  R1 000100	000100
  R2 002000	002000
  R3 002100	002100
  R4 007770	007770
  R5 177777	177777
  R6 000300	000300

  Память
  ячейка	до	после
  007772	000032	000032
  007776	167777	167777
> 010000	177444	177400
  010002	045454	045454
  010004	003434	003434
  010006	000045	000045

==============================

Command: INC 32(R0)
Машинный код
адрес	инстукция
010010	005260 000032
010014

  Регистры
     до		после
  R0 001046	001046
  R1 002033	002033
  R2 000034	000034
  R3 054345	054345
  R4 000002	000002
  R5 000064	000064
  R6 000001	000001

  Память
  ячейка	до	после
  001000	003423	003423
  001070	000043	000043
> 001100	000167	000170
  001200	000032	000032
  001300	000072	000072
  001400	000054	000054

==============================

Command: INCB 100(R6)
Машинный код
адрес	инстукция
010000	105266 000100
010004

  Регистры
     до		после
  R0 000034	000034
  R1 020000	020000
  R2 000432	000432
  R3 000053	000053
  R4 050000	050000
  R5 003200	003200
  R6 003000	003000

  Память
  ячейка	до	после
  003000	000013	000013
> 003100	000014	000015
  032000	000015	000015
  003200	000017	000017
  003300	000034	000034
  003400	000061	000061

==============================

Command: DEC 30(R2)
Машинный код
адрес	инстукция
033000	005362 000030
033004

  Регистры
     до		после
  R0 023453	023453
  R1 026545	026545
  R2 001770	001770
  R3 014444	014444
  R4 024444	024444
  R5 000035	000035
  R6 000065	000065

  Память
  ячейка	до	после
  001770	000032	000032
  002000	005453	005453
  002010	000004	000004
> 002020	000010	000007
  002040	000065	000065
  002060	000654	000654

==============================

Command: DECB 200(R5)
Машинный код
адрес	инстукция
010000	105365 000200
010004

  Регистры
     до		после
  R0 001537	001537
  R1 000355	000355
  R2 007346	007346
  R3 000564	000564
  R4 001620	001620
  R5 001620	001620
  R6 001600	001600

  Память
  ячейка	до	после
  001620	002300	002300
  001660	000300	000300
  002000	000400	000400
> 002020	000500	000477
  002040	000600	000600
  002200	000200	000200

==============================

Command: MOV 10(R2),20(R1)
Машинный код
адрес	инстукция
011000	016261 000010 000020
011006

  Регистры
     до		после
  R0 000100	000100
  R1 001000	001000
  R2 002000	002000
  R3 003000	003000
  R4 004000	004000
  R5 005000	005000
  R6 006000	006000

  Память
  ячейка	до	после
  001000	034234	034234
  001010	004354	004354
> 001020	000654	006756
  002000	000543	000543
  002010	006756	006756
  002020	004345	004345

==============================

Command: ADD 40(R0),20(R1)
Машинный код
адрес	инстукция
010000	066061 000040 000020
010006

  Регистры
     до		после
  R0 001770	001770
  R1 002020	002020
  R2 002030	002030
  R3 002834	002834
  R4 000456	000456
  R5 000053	000053
  R6 000674	000674

  Память
  ячейка	до	после
  001770	000001	000001
  002000	000002	000002
  002010	000003	000003
  002020	000004	000004
  002030	000005	000005
> 002040	000006	000013

==============================
==          PART 5          ==
==============================

Command: CLR @R1
Машинный код
адрес	инстукция
010000	005011
010002

  Регистры
     до		после
  R0 022000	022000
  R1 020000	020000
  R2 000220	000220
  R3 000064	000064
  R4 000546	000546
  R5 000078	000078
  R6 000053	000053

  Память
  ячейка	до	после
> 020000	034653	000000
  022000	000004	000004
  020002	000045	000045
  020004	000005	000005
  030000	000003	000003
  033000	000005	000005

==============================

Command: CLRB @R4
Машинный код
адрес	инстукция
001000	105014
001002

  Регистры
     до		после
  R0 000001	000001
  R1 000000	000000
  R2 003445	003445
  R3 002000	002000
  R4 004000	004000
  R5 000530	000530
  R6 000054	000054

  Память
  ячейка	до	после
  002000	000342	000342
  003000	001241	001241
> 004000	000353	000000
  004100	000334	000334
  006000	000032	000032
  007000	000345	000345

==============================

Command: INC (R3)
Машинный код
адрес	инстукция
002200	005213
002202

  Регистры
     до		после
  R0 012400	012400
  R1 032000	032000
  R2 005020	005020
  R3 004666	004666
  R4 032360	032360
  R5 007200	007200
  R6 036700	036700

  Память
  ячейка	до	после
  004664	023400	023400
> 004666	012477	012500
  004670	037200	037200
  004770	040000	040000
  005000	010000	010000
  001776	077777	077777

==============================

Command: INCB @R6
Машинный код
адрес	инстукция
020200	105216
020202

  Регистры
     до		после
  R0 000001	000001
  R1 001010	001010
  R2 044000	044000
  R3 001776	001776
  R4 000200	000200
  R5 020006	020006
  R6 003000	003000

  Память
  ячейка	до	после
  020000	030002	030002
> 003000	016312	016313
  003002	010200	010200
  003004	047000	047000
  003006	017000	017000
  003010	170000	170000

==============================

Command: DEC (R2)
Машинный код
адрес	инстукция
010010	005312
010012

  Регистры
     до		после
  R0 037200	037200
  R1 004000	004000
  R2 004020	004020
  R3 004040	004040
  R4 003740	003740
  R5 017776	017776
  R6 027340	027340

  Память
  ячейка	до	после
  004000	020000	020000
> 004020	012424	012423
  004040	004100	004100
  004060	017772	017772
  004100	020006	020006
  004200	073001	073001

==============================

Command: DECB @R5
Машинный код
адрес	инстукция
007022	105315
007024

  Регистры
     до		после
  R0 000707	000707
  R1 000025	000025
  R2 000003	000003
  R3 111111	111111
  R4 010700	010700
  R5 020401	020401
  R6 000000	000000

  Память
  ячейка	до	после
  020000	030000	030000
  020200	021000	021000
> 020400	044000	043400
  020600	177777	177777
  021000	010007	010007
  022000	020202	020202

==============================

Command: ADD @R3,(R2)
Машинный код
адрес	инстукция
001016	061312
001020

  Регистры
     до		после
  R0 000702	000702
  R1 000000	000000
  R2 001240	001240
  R3 002560	002560
  R4 000335	000335
  R5 044321	044321
  R6 035555	035555

  Память
  ячейка	до	после
  001200	013333	013333
  001220	020400	020400
> 001240	000001	010000
  002500	032000	032000
  002600	017770	017770
  002560	007777	007777

==============================

Command: MOV @R4,(R1)
Машинный код
адрес	инстукция
020000	011411
020002

  Регистры
     до		после
  R0 000000	000000
  R1 002470	002470
  R2 030000	030000
  R3 011120	011120
  R4 003200	003200
  R5 057332	057332
  R6 000026	000026

  Память
  ячейка	до	после
  002400	000007	000007
> 002470	011111	066666
  003200	066666	066666
  003400	000077	000077
  004200	033333	033333
  004600	025700	025700

==============================
==          PART 6          ==
==============================

Command: CLR @(R3)+
Машинный код
адрес	инстукция
010000	005033
010002

  Регистры
     до		после
  R0 002000	002000
  R1 002002	002002
  R2 002004	002004
> R3 020006	020010
  R4 002010	002010
  R5 002012	002012
  R6 002014	002014

  Память
  ячейка	до	после
  010000	000001	000001
  010002	000002	000002
> 010004	000003	000000
  020006	010004	010004
  020010	010002	010002
  020012	010000	010000

==============================

Command: CLRB @(R2)+
Машинный код
адрес	инстукция
001002	105032
001004

  Регистры
     до		после
  R0 010000	010000
  R1 020000	020000
> R2 030000	030002
  R3 040000	040000
  R4 050000	050000
  R5 060000	060000
  R6 100000	100000

  Память
  ячейка	до	после
  030000	030012	030012
  030002	030006	030006
  030004	036366	036366
  030006	000015	000015
  030010	000006	000006
> 030012	000775	000400

==============================

Command: INC @(R1)+
Машинный код
адрес	инстукция
010000	005231
010002

  Регистры
     до		после
  R0 030010	030010
> R1 030012	030014
  R2 030014	030014
  R3 030016	030016
  R4 030020	030020
  R5 030022	030022
  R6 020024	020024

  Память
  ячейка	до	после
  030010	001600	001600
  030012	001200	001200
  030014	000777	000777
> 001200	007777	010000
  001400	077777	077777
  001600	000177	000177

==============================

Command: INCB @(R5)+
Машинный код
адрес	инстукция
010000	105235
010002

  Регистры
     до		после
  R0 002000	002000
  R1 002002	002002
  R2 002004	002004
  R3 002006	002006
  R4 002010	002010
> R5 002012	002014
  R6 002014	002014

  Память
  ячейка	до	после
> 001000	011222	011223
  001002	042222	042222
  003004	133333	133333
  002012	001000	001000
  002014	001002	001002
  002016	011777	011777

==============================

Command: ADD @(R0)+,@(R6)+
Машинный код
адрес	инстукция
010010	063036
010012

  Регистры
     до		после
> R0 002000	002002
  R1 002002	002002
  R2 002004	002004
  R3 003000	003000
  R4 003002	003002
  R5 003004	003004
> R6 003006	003010

  Память
  ячейка	до	после
> 001776	000001	000020
  002000	003010	003010
  002002	001774	001774
  003004	000047	000047
  003006	001776	001776
  003010	000017	000017

==============================

Command: MOV @(R3)+,@(R2)+
Машинный код
адрес	инстукция
020000	013332
020002

  Регистры
     до		после
  R0 004000	004000
  R1 004100	004100
> R2 004200	004202
> R3 004300	004302
  R4 004400	004400
  R5 004600	004600
  R6 004700	004700

  Память
  ячейка	до	после
  004200	004304	004304
  004202	004306	004306
  004204	000000	000000
  004300	004204	004204
  004302	004200	004200
> 004304	000002	000000

==============================

Command: DEC @(R1)+
Машинный код
адрес	инстукция
011006	005331
011010

  Регистры
     до		после
  R0 017002	017002
> R1 003002	003004
  R2 023400	023400
  R3 032300	032300
  R4 033333	033333
  R5 071777	071777
  R6 030555	030555

  Память
  ячейка	до	после
  030000	017777	017777
  003002	017000	017000
  003004	017400	017400
> 017000	033333	033332
  017200	030000	030000
  017400	026000	026000

==============================

Command: DECB @(R6)+
Машинный код
адрес	инстукция
010222	105336
010224

  Регистры
     до		после
  R0 000000	000000
  R1 000256	000256
  R2 001024	001024
  R3 012000	012000
  R4 017000	017000
  R5 020000	020000
> R6 001776	002000

  Память
  ячейка	до	после
  001774	012777	012777
  001776	003005	003005
  002000	003002	003002
  003002	021000	021000
> 003004	032477	032077
  003006	037766	037766

==============================
==          PART 7          ==
==============================

Command: CLR @-(R2)
Машинный код
адрес	инстукция
001100	005052
001102

  Регистры
     до		после
  R0 004000	004000
  R1 004010	004010
> R2 004020	004016
  R3 004030	004030
  R4 004050	004050
  R5 004060	004060
  R6 004070	004070

  Память
  ячейка	до	после
  004010	002040	002040
  004016	020000	020000
  004020	020020	020020
> 020000	010000	000000
  020020	030000	030000
  020040	040000	040000

==============================

Command: CLRB @-(R0)
Машинный код
адрес	инстукция
001000	105050
001002

  Регистры
     до		после
> R0 006000	005776
  R1 005002	005002
  R2 006004	006004
  R3 010000	010000
  R4 000000	000000
  R5 000002	000002
  R6 006545	006545

  Память
  ячейка	до	после
  005776	005000	005000
  006000	005004	005004
  006002	005002	005002
> 005000	026666	026400
  005002	000034	000034
  005004	000234	000234

==============================

Command: INC @-(R1)
Машинный код
адрес	инстукция
020000	005251
020002

  Регистры
     до		после
  R0 000001	000001
> R1 003000	002776
  R2 004000	004000
  R3 005000	005000
  R4 006000	006000
  R5 000004	000004
  R6 000007	000007

  Память
  ячейка	до	после
> 027776	000007	000010
  003000	000077	000077
  002776	027776	027776
  003002	030002	030002
  030000	077777	077777
  030002	000001	000001

==============================

Command: INCB @-(R5)
Машинный код
адрес	инстукция
010000	105255
010002

  Регистры
     до		после
  R0 001000	001000
  R1 002000	002000
  R2 003000	003000
  R3 004000	004000
  R4 005000	005000
> R5 006000	005776
  R6 007000	007000

  Память
  ячейка	до	после
  005776	002000	002000
  006000	001000	001000
  001000	004776	004776
  004776	006000	006000
  005000	005776	005776
> 002000	005000	005001

==============================

Command: DEC @-(R3)
Машинный код
адрес	инстукция
010000	005353
010002

  Регистры
     до		после
  R0 004000	004000
  R1 004002	004002
  R2 004004	004004
> R3 004006	004004
  R4 004010	004010
  R5 004012	004012
  R6 004014	004014

  Память
  ячейка	до	после
  004002	005200	005200
  004004	007776	007776
> 007776	000001	000000
  007774	000177	000177
  005200	001000	001000
  005202	000045	000045

==============================

Command: DECB @-(R2)
Машинный код
адрес	инстукция
010002	105352
010004

  Регистры
     до		после
  R0 003000	003000
  R1 003002	003002
> R2 003004	003002
  R3 000100	000100
  R4 000200	000200
  R5 000300	000300
  R6 000400	000400

  Память
  ячейка	до	после
  003002	005600	005600
  003004	004400	004400
  004400	000001	000001
  005200	000045	000045
> 005600	017576	017575
  006000	013455	013455

==============================

Command: ADD @-(R1),@-(R2)
Машинный код
адрес	инстукция
010010	065152
010012

  Регистры
     до		после
  R0 001002	001002
> R1 002004	002002
> R2 003006	003004
  R3 004000	004000
  R4 005002	005002
  R5 006004	006004
  R6 007006	007006

  Память
  ячейка	до	после
  002002	003000	003000
  002004	002000	002000
> 002006	001000	003674
  003000	002674	002674
  003002	000765	000765
  003004	002006	002006

==============================

Command: MOV @-(R0),@-(R5)
Машинный код
адрес	инстукция
011000	015055
011002

  Регистры
     до		после
> R0 002000	001776
  R1 002100	002100
  R2 002200	002200
  R3 002300	002300
  R4 002400	002400
> R5 002600	002576
  R6 003000	003000

  Память
  ячейка	до	после
  001776	003000	003000
  002000	004550	004550
  002576	003760	003760
  002600	004566	004566
  003000	002455	002455
> 003760	005734	002455

==============================
==          PART 8          ==
==============================

Command: CLR @20(R3)
Машинный код
адрес	инстукция
012000	005073 000020
012004

  Регистры
     до		после
  R0 000000	000000
  R1 001000	001000
  R2 002000	002000
  R3 003000	003000
  R4 004000	004000
  R5 005000	005000
  R6 006000	006000

  Память
  ячейка	до	после
  003000	004100	004100
  003020	004040	004040
  004100	001212	001212
> 004040	002121	000000
  002000	003000	003000
  002600	002777	002777

==============================

Command: CLRB @40(R0)
Машинный код
адрес	инстукция
010100	105070 000040
010104

  Регистры
     до		после
  R0 020000	020000
  R1 020020	020020
  R2 020060	020060
  R3 030000	030000
  R4 017454	017454
  R5 000657	000657
  R6 000007	000007

  Память
  ячейка	до	после
  020000	030000	030000
  020040	040000	040000
> 040000	055555	055400
  030000	066666	066666
  060000	177777	177777
  100000	035555	035555

==============================

Command: INC @40(R0)
Машинный код
адрес	инстукция
010000	005270 000040
010004

  Регистры
     до		после
  R0 001000	001000
  R1 001002	001002
  R2 001010	001010
  R3 001012	001012
  R4 001020	001020
  R5 002000	002000
  R6 000300	000300

  Память
  ячейка	до	после
  001000	000001	000001
  001020	004000	004000
  000100	000077	000077
  001040	030000	030000
> 030000	000177	000200
  004000	002777	002777

==============================

Command: INCB @200(R4)
Машинный код
адрес	инстукция
010200	105274 000200
010204

  Регистры
     до		после
  R0 000015	000015
  R1 000133	000133
  R2 000200	000200
  R3 000001	000001
  R4 020600	020600
  R5 036700	036700
  R6 024200	024200

  Память
  ячейка	до	после
  020000	017740	017740
  020600	040000	040000
  021000	040003	040003
  040000	032000	032000
> 040002	027526	030126
  040004	035555	035555

==============================

Command: DEC @10(R6)
Машинный код
адрес	инстукция
020000	005376 000010
020004

  Регистры
     до		после
  R0 000013	000013
  R1 000122	000122
  R2 000015	000015
  R3 004010	004010
  R4 001024	001024
  R5 032000	032000
  R6 001000	001000

  Память
  ячейка	до	после
  001000	030000	030000
  001010	030400	030400
  001020	010100	010100
  030000	172222	172222
  032000	013333	013333
> 030400	001000	000777

==============================

Command: DECB @40(R1)
Машинный код
адрес	инстукция
011002	105371 000040
011006

  Регистры
     до		после
  R0 004000	004000
  R1 004040	004040
  R2 032222	032222
  R3 053333	053333
  R4 010001	010001
  R5 021120	021120
  R6 030007	030007

  Память
  ячейка	до	после
  004000	000027	000027
  004040	020000	020000
  004100	021001	021001
  020000	165400	165400
> 021000	162253	161653
  022000	173420	173420

==============================

Command: ADD @20(R0),@60(R1)
Машинный код
адрес	инстукция
034000	067071 000020 000060
034006

  Регистры
     до		после
  R0 010000	010000
  R1 020000	020000
  R2 030000	030000
  R3 040000	040000
  R4 050000	050000
  R5 060000	060000
  R6 070000	070000

  Память
  ячейка	до	после
> 010000	017074	020700
  010020	010060	010060
  010060	001604	001604
  020000	017776	017776
  020020	020301	020301
  020060	010000	010000

==============================

Command: MOV @70(R4),@300(R5)
Машинный код
адрес	инстукция
020202	017475 000070 000300
020210

  Регистры
     до		после
  R0 013400	013400
  R1 026600	026600
  R2 024001	024001
  R3 035400	035400
  R4 012110	012110
  R5 013500	013500
  R6 017400	017400

  Память
  ячейка	до	после
  012110	017771	017771
  012200	026000	026000
  013500	020020	020020
  014000	020000	020000
> 020000	144320	035555
  026000	035555	035555

==============================
==          PART 9          ==
==============================

Command: MOV #10,R1
Машинный код
адрес	инстукция
011000	012701 000010
011004

  Регистры
     до		после
  R0 000001	000001
> R1 020300	000010
  R2 040500	040500
  R3 060000	060000
  R4 072400	072400
  R5 077702	077702
  R6 017771	017771

  Память
  ячейка	до	после
  020300	070600	070600
  040500	000002	000002
  070000	000004	000004
  070200	000003	000003
  070400	000020	000020
  070600	000030	000030

==============================

Command: ADD #30,@R3
Машинный код
адрес	инстукция
013002	062713 000030
013006

  Регистры
     до		после
  R0 030000	030000
  R1 000030	000030
  R2 000005	000005
  R3 030000	030000
  R4 010000	010000
  R5 070400	070400
  R6 000001	000001

  Память
  ячейка	до	после
> 030000	050000	050030
  030030	000055	000055
  040000	070000	070000
  040030	000040	000040
  050000	000020	000020
  050030	000177	000177

==============================

Command: MOV #1,(R2)
Машинный код
адрес	инстукция
020004	012712 000001
020010

  Регистры
     до		после
  R0 000010	000010
  R1 072300	072300
> R2 004000	004002
  R3 052000	052000
  R4 004002	004002
  R5 004020	004020
  R6 004200	004200

  Память
  ячейка	до	после
> 004000	042000	000001
  004002	035555	035555
  004004	020000	020000
  004020	000177	000177
  004022	000014	000014
  004200	000007	000007

==============================

Command: SUB #2,-(R1)
Машинный код
адрес	инстукция
030006	162741 000002
030012

  Регистры
     до		после
  R0 010000	010000
> R1 004000	003776
  R2 003774	003774
  R3 003200	003200
  R4 000320	000320
  R5 003070	003070
  R6 010074	010074

  Память
  ячейка	до	после
  003774	025000	025000
> 003776	010000	007776
  004000	020000	020000
  025000	010007	010007
  026000	056332	056332
  027000	000055	000055

==============================

Command: ADD #100,20(R4)
Машинный код
адрес	инстукция
017004	062764 000100 000020
017012

  Регистры
     до		после
  R0 000001	000001
  R1 000010	000010
  R2 000100	000100
  R3 001000	001000
  R4 010000	010000
  R5 100000	100000
  R6 177777	177777

  Память
  ячейка	до	после
  010000	000001	000001
  010010	020200	020200
> 010020	106777	107077
  020000	010000	010000
  020200	000001	000001
  020400	000010	000010

==============================

Command: MOV #20,@(R5)+
Машинный код
адрес	инстукция
003220	012735 000020
003224

  Регистры
     до		после
  R0 001000	001000
  R1 000007	000007
  R2 000200	000200
  R3 000003	000003
  R4 070200	070200
> R5 040000	040002
  R6 040006	040006

  Память
  ячейка	до	после
  040000	030000	030000
  040002	030004	030004
  040004	000010	000010
> 030000	010000	000020
  030002	000020	000020
  030004	000040	000040

==============================

Command: SUB #1,@20(R0)
Машинный код
адрес	инстукция
070012	162770 000001 000020
070020

  Регистры
     до		после
  R0 050000	050000
  R1 000001	000001
  R2 000040	000040
  R3 017777	017777
  R4 001720	001720
  R5 040000	040000
  R6 000030	000030

  Память
  ячейка	до	после
> 010000	020000	017777
  010002	000037	000037
  010004	004126	004126
  050000	001000	001000
  050020	010000	010000
  050040	000040	000040

==============================

Command: ADD #7,@-(R6)
Машинный код
адрес	инстукция
010006	062756 000007
010012

  Регистры
     до		после
  R0 000003	000003
  R1 000005	000005
  R2 017774	017774
  R3 000020	000020
  R4 000040	000040
  R5 014000	014000
> R6 020000	017776

  Память
  ячейка	до	после
  017774	003000	003000
  017776	040000	040000
  020000	050000	050000
  030000	170400	170400
> 040000	000071	000100
  050000	120201	120201

==============================
==          PART 10         ==
==============================

Command: CLR @#10000
Машинный код
адрес	инстукция
020002	005037 001000
020006

  Регистры
     до		после
  R0 000001	000001
  R1 000007	000007
  R2 024240	024240
  R3 137177	137177
  R4 000000	000000
  R5 003355	003355
  R6 000016	000016

  Память
  ячейка	до	после
> 001000	005000	000000
  002000	000012	000012
  003000	000016	000016
  004000	020000	020000
  005000	037777	037777
  006000	042224	042224

==============================

Command: INC @#12000
Машинный код
адрес	инстукция
020112	005237 001200
020116

  Регистры
     до		после
  R0 000100	000100
  R1 000120	000120
  R2 000130	000130
  R3 001277	001277
  R4 001001	001001
  R5 020400	020400
  R6 000005	000005

  Память
  ячейка	до	после
  001000	000001	000001
  001100	000101	000101
> 001200	000000	000001
  001400	001200	001200
  001600	000077	000077
  002000	017776	017776

==============================

Command: DEC @#20000
Машинный код
адрес	инстукция
010000	005337 020000
010004

  Регистры
     до		после
  R0 000001	000001
  R1 000012	000012
  R2 120000	120000
  R3 020000	020000
  R4 030000	030000
  R5 004444	004444
  R6 044017	044017

  Память
  ячейка	до	после
  010000	050000	050000
> 020000	010000	007777
  030000	000007	000007
  040000	000077	000077
  050000	017770	017770
  060000	020000	020000

==============================

Command: ADD #1,@#20200
Машинный код
адрес	инстукция
040000	062737 000001 020200
040006

  Регистры
     до		после
  R0 020400	020400
  R1 020600	020600
  R2 020606	020606
  R3 020660	020660
  R4 000007	000007
  R5 000177	000177
  R6 000003	000003

  Память
  ячейка	до	после
  020100	000001	000001
> 020200	030000	030001
  020300	000017	000017
  020400	003555	003555
  020500	004020	004020
  020600	000771	000771

==============================

Command: MOV #200,@#2000
Машинный код
адрес	инстукция
011012	012737 000200 002000
011020

  Регистры
     до		после
  R0 010000	010000
  R1 010200	010200
  R2 000003	000003
  R3 000147	000147
  R4 055522	055522
  R5 000131	000131
  R6 000030	000030

  Память
  ячейка	до	после
> 002000	030004	000200
  002002	000001	000001
  002004	000017	000017
  003000	000040	000040
  003002	000133	000133
  003004	002742	002742

==============================

Command: INCB @#30000
Машинный код
адрес	инстукция
024020	105237 030000 20000
024024

  Регистры
     до		после
  R0 000000	000000
  R1 000010	000010
  R2 000001	000001
  R3 040000	040000
  R4 003720	003720
  R5 000012	000012
  R6 000000	000000

  Память
  ячейка	до	после
  004000	000001	000001
  006000	000004	000004
  020000	000003	000003
> 030000	000000	000001
  040000	000077	000077
  060000	000026	000026

==============================

Command: INCB @#30000
Машинный код
адрес	инстукция
024020	105237 030000
024024

  Регистры
     до		после
  R0 000000	000000
  R1 000010	000010
  R2 000001	000001
  R3 040000	040000
  R4 003720	003720
  R5 000012	000012
  R6 000000	000000

  Память
  ячейка	до	после
  004000	000001	000001
  006000	000004	000004
  020000	000003	000003
> 030000	000000	000001
  040000	000077	000077
  060000	000026	000026

==============================

Command: CLRB @#1001
Машинный код
адрес	инстукция
011032	105037 001001
011036

  Регистры
     до		после
  R0 010000	010000
  R1 020000	020000
  R2 030000	030000
  R3 040000	040000
  R4 050000	050000
  R5 060000	060000
  R6 070000	070000

  Память
  ячейка	до	после
> 001000	142777	000377
  001020	001777	001777
  001040	000027	000027
  002000	000037	000037
  004000	000017	000017
  006000	000020	000020

==============================

Command: DECB @#1005
Машинный код
адрес	инстукция
010002	105327 001005
010006

  Регистры
     до		после
  R0 000001	000001
  R1 000002	000002
  R2 000003	000003
  R3 000007	000007
  R4 000200	000200
  R5 000209	000209
  R6 000307	000307

  Память
  ячейка	до	после
  001000	000077	000077
  001002	000177	000177
> 001004	003020	002420
  001006	045320	045320
  001010	046300	046300
  001012	037000	037000

==============================
==          PART 11         ==
==============================

Command: CLR 1000
Машинный код
адрес	инстукция
000014	005067 000760
000020

  Регистры
     до		после
  R0 000700	000700
  R1 000147	000147
  R2 002000	002000
  R3 001000	001000
  R4 004200	004200
  R5 001777	001777
  R6 000470	000470

  Память
  ячейка	до	после
> 001000	077777	000000
  001002	002222	002222
  001004	047333	047333
  010200	020666	020666
  010400	017001	017001
  010600	003204	003204

==============================

Command: CLRB 2021
Машинный код
адрес	инстукция
000016	105067 001777
000022

  Регистры
     до		после
  R0 001000	001000
  R1 002000	002000
  R2 000012	000012
  R3 000043	000043
  R4 000015	000015
  R5 000006	000006
  R6 000000	000000

  Память
  ячейка	до	после
  002000	000100	000100
  002010	013777	013777
> 002020	014522	000122
  002040	000171	000171
  003000	001777	001777
  004000	003000	003000

==============================

Command: INC 50021
Машинный код
адрес	инстукция
000332	005267 004444
000336

  Регистры
     до		после
  R0 000006	000006
  R1 000017	000017
  R2 000177	000177
  R3 001000	001000
  R4 001002	001002
  R5 007004	007004
  R6 002014	002014

  Память
  ячейка	до	после
  005000	040017	040017
> 005002	010007	010010
  005004	030207	030207
  060000	010111	010111
  060020	070300	070300
  060040	040200	040200

==============================

Command: INCB 1007
Машинный код
адрес	инстукция
000040	105267 000743
000044

  Регистры
     до		после
  R0 000012	000012
  R1 000177	000177
  R2 022666	022666
  R3 010006	010006
  R4 133666	133666
  R5 052222	052222
  R6 030040	030040

  Память
  ячейка	до	после
  001000	122222	122222
  001002	177777	177777
  001004	127400	127400
> 001006	143577	144177
  001010	036666	036666
  001012	010200	010200

==============================

Command: DEC 33007
Машинный код
адрес	инстукция
000152	005378 003122
000156

  Регистры
     до		после
  R0 030000	030000
  R1 033000	033000
  R2 030200	030200
  R3 010000	010000
  R4 014000	014000
  R5 000012	000012
  R6 000016	000016

  Память
  ячейка	до	после
  003000	100777	100777
  003100	021002	021002
  003200	010100	010100
> 003300	000100	000077
  003400	070001	070001
  003500	017000	017000

==============================

Command: DECB 20101
Машинный код
адрес	инстукция
002400	105367 015475
002404

  Регистры
     до		после
  R0 010200	010200
  R1 010400	010400
  R2 020100	020100
  R3 020000	020000
  R4 036400	036400
  R5 024700	024700
  R6 020777	020777

  Память
  ячейка	до	после
> 020100	072301	071701
  020102	040404	040404
  020104	077077	077077
  020106	034200	034200
  020110	046300	046300
  020112	032701	032701

==============================

Command: ADD 1000,1100
Машинный код
адрес	инстукция
000300	066767 000474 000572
000306

  Регистры
     до		после
  R0 010000	010000
  R1 001000	001000
  R2 000100	000100
  R3 000010	000010
  R4 000001	000001
  R5 070220	070220
  R6 027770	027770

  Память
  ячейка	до	после
  001000	077301	077301
  001010	023332	023332
> 001100	000477	100000
  001110	036555	036555
  001200	040200	040200
  001400	021111	021111

==============================

Command: MOV 1020,3000
Машинный код
адрес	инстукция
000014	016767 001000 002756
000022

  Регистры
     до		после
  R0 000001	000001
  R1 000017	000017
  R2 000200	000200
  R3 000046	000046
  R4 000171	000171
  R5 000020	000020
  R6 000200	000200

  Память
  ячейка	до	после
  001000	000047	000047
  001020	000001	000001
  001040	002001	002001
> 003000	000777	000001
  004000	000032	000032
  006000	000014	000014

==============================
==          PART 12         ==
==============================

Command: CLR @1000
Машинный код
адрес	инстукция
000070	005077 000704
000074

  Регистры
     до		после
  R0 000012	000012
  R1 000007	000007
  R2 000016	000016
  R3 001777	001777
  R4 002000	002000
  R5 001000	001000
  R6 001701	001701

  Память
  ячейка	до	после
  001000	004000	004000
  002000	006000	006000
  003000	000700	000700
> 004000	017000	000000
  005000	000177	000177
  006000	002700	002700

==============================

Command: CLRB @2020
Машинный код
адрес	инстукция
000032	105077 001762
000036

  Регистры
     до		после
  R0 002000	002000
  R1 000010	000010
  R2 000017	000017
  R3 000023	000023
  R4 047333	047333
  R5 002444	002444
  R6 001333	001333

  Память
  ячейка	до	после
  002000	013200	013200
  002010	000044	000044
  002020	003101	003101
  003000	000030	000030
> 003100	172642	000242
  003200	000024	000024

==============================

Command: INC @40600
Машинный код
адрес	инстукция
000702	005277 003152
000706

  Регистры
     до		после
  R0 000010	000010
  R1 000200	000200
  R2 001770	001770
  R3 026444	026444
  R4 003712	003712
  R5 000070	000070
  R6 000040	000040

  Память
  ячейка	до	после
  004000	010200	010200
  004020	000030	000030
  004060	010400	010400
  010200	000177	000177
> 010400	010777	011000
  010600	020107	020107

==============================

Command: INCB @20016
Машинный код
адрес	инстукция
001006	105277 017004
001012

  Регистры
     до		после
  R0 000013	000013
  R1 002444	002444
  R2 003777	003777
  R3 002040	002040
  R4 000137	000137
  R5 004700	004700
  R6 000144	000144

  Память
  ячейка	до	после
  020012	050200	050200
  020014	001222	001222
  020016	050301	050301
  050100	004545	004545
  050200	002630	002630
> 050300	002737	003337

==============================

Command: DEC @220216
Машинный код
адрес	инстукция
001114	005377 001062
001120

  Регистры
     до		после
  R0 000200	000200
  R1 000444	000444
  R2 001777	001777
  R3 002001	002001
  R4 003744	003744
  R5 006020	006020
  R6 000242	000242

  Память
  ячейка	до	после
  002200	010010	010010
  002202	010014	010014
  002204	000017	000017
  010010	000277	000277
  010012	001442	001442
> 010014	010200	010177

==============================

Command: DECB @10206
Машинный код
адрес	инстукция
003004	105377 005176
003010

  Регистры
     до		после
  R0 010000	010000
  R1 020300	020300
  R2 012444	012444
  R3 003240	003240
  R4 001774	001774
  R5 000200	000200
  R6 000007	000007

  Память
  ячейка	до	после
  010200	000003	000003
  010204	044000	044000
  010206	044005	044005
  044000	000017	000017
  044002	000204	000204
> 044004	022666	022266

==============================

Command: ADD @10010,@2030
Машинный код
адрес	инстукция
001016	067777 006766 001004
001024

  Регистры
     до		после
  R0 000700	000700
  R1 001000	001000
  R2 000014	000014
  R3 010010	010010
  R4 000300	000300
  R5 000147	000147
  R6 000027	000027

  Память
  ячейка	до	после
  002020	032600	032600
  002030	050000	050000
  010010	040000	040000
  010020	042000	042000
  040000	032040	032040
> 050000	015230	047270

==============================

Command: MOV @3002,@17300
Машинный код
адрес	инстукция
001044	017777 001732 016226
001052

  Регистры
     до		после
  R0 000034	000034
  R1 000012	000012
  R2 000177	000177
  R3 003344	003344
  R4 001123	001123
  R5 003040	003040
  R6 001267	001267

  Память
  ячейка	до	после
  017300	072000	072000
  017400	000011	000011
  003002	040400	040400
  003004	001774	001774
  040400	033111	033111
> 072000	027417	033111

==============================

